<?xml version="1.0" encoding="utf-8"?>
<!-- Generator: Adobe Illustrator 18.1.1, SVG Export Plug-In . SVG Version: 6.00 Build 0)  -->
<svg version="1.1" onscroll="аыавп" xmlns="http://www.w3.org/2000/svg" xmlns:xlink="http://www.w3.org/1999/xlink" x="0px"
	 y="0px" viewBox="0 0 65 65" enable-background="new 0 0 65 65" xml:space="preserve">
<g id="bg">
</g>
<g id="design">
	<g id="heder">
	</g>
	<g>
		<g>
			<path fill="#C8C8C8" d="M32.5,2.5c16.5,0,30,13.5,30,30s-13.5,30-30,30s-30-13.5-30-30S16,2.5,32.5,2.5 M32.5,0.5
				c-17.7,0-32,14.3-32,32s14.3,32,32,32s32-14.3,32-32S50.2,0.5,32.5,0.5L32.5,0.5z"/>
		</g>
		
			<polyline fill="none" stroke="#C8C8C8" stroke-width="2" stroke-linecap="round" stroke-linejoin="round" stroke-miterlimit="10" points="
			12,34 17.3,34 28,48 28,16 48,16 48,24 		"/>
		<g>
			<path fill="#C8C8C8" d="M40,27.5c0.6,0,1,0.4,1,1v10c0,0.6-0.4,1-1,1h-4c-0.6,0-1-0.4-1-1v-10c0-0.6,0.4-1,1-1H40 M40,25.5h-4
				c-1.7,0-3,1.3-3,3v10c0,1.7,1.3,3,3,3h4c1.7,0,3-1.3,3-3v-10C43,26.8,41.7,25.5,40,25.5L40,25.5z"/>
		</g>
		
			<line fill="none" stroke="#C8C8C8" stroke-width="2" stroke-linecap="round" stroke-linejoin="round" stroke-miterlimit="10" x1="38" y1="27" x2="38" y2="21"/>
		
			<line fill="none" stroke="#C8C8C8" stroke-width="2" stroke-linecap="round" stroke-linejoin="round" stroke-miterlimit="10" x1="38" y1="49" x2="38" y2="41"/>
	</g>
</g>
<g id="Слой_3">
</g>
</svg>
