<?xml version="1.0" encoding="utf-8"?>
<!-- Generator: Adobe Illustrator 18.1.1, SVG Export Plug-In . SVG Version: 6.00 Build 0)  -->
<svg version="1.1" onscroll="аыавп" xmlns="http://www.w3.org/2000/svg" xmlns:xlink="http://www.w3.org/1999/xlink" x="0px"
	 y="0px" viewBox="0 0 11 11" enable-background="new 0 0 11 11" xml:space="preserve">
<g id="bg">
</g>
<g id="design">
	<g id="heder">
	</g>
	<g>
		<polygon fill="#C8C8C8" points="11,0 11,5 6,5 		"/>
	</g>
	<g>
		<path fill="#C8C8C8" d="M9.7,5H8.3c0-1.8-1.5-3.3-3.3-3.3S1.7,3.2,1.7,5H0.3c0-2.6,2.1-4.7,4.7-4.7S9.7,2.4,9.7,5z"/>
	</g>
	<g>
		<polygon fill="#C8C8C8" points="0,11 0,6 5,6 		"/>
	</g>
	<g>
		<path fill="#C8C8C8" d="M6,10.7c-2.6,0-4.7-2.1-4.7-4.7h1.4c0,1.8,1.5,3.3,3.3,3.3S9.3,7.8,9.3,6h1.4C10.7,8.6,8.6,10.7,6,10.7z"
			/>
	</g>
</g>
<g id="Слой_3">
</g>
</svg>
