<?xml version="1.0" encoding="utf-8"?>
<!-- Generator: Adobe Illustrator 18.1.1, SVG Export Plug-In . SVG Version: 6.00 Build 0)  -->
<svg version="1.1" id="Слой_1" xmlns="http://www.w3.org/2000/svg" xmlns:xlink="http://www.w3.org/1999/xlink" x="0px" y="0px"
	 viewBox="0 0 24 24" enable-background="new 0 0 24 24" xml:space="preserve">
<path fill="#AAAAAA" d="M15,8.3c0,0-0.1,0-0.1,0c-0.8,0-1.7,0.2-2.5,0.3C11.2,9,10.1,9.4,9.1,10c-1.5,0.9-2.2,2.2-2.4,3.8
	c-0.2,1.5,0.1,2.9,0.8,4.3c0.1,0.3,0.2,0.6,0.3,0.8c0,0.1,0.1,0.1,0.1,0.2c0.1,0.1,0.2,0.1,0.3,0.1c0.1,0,0.2-0.1,0.2-0.2
	c0-0.1,0-0.1,0-0.2c-0.1-0.9-0.2-1.9,0.1-2.8c0.3-1.4,1.4-2.3,2.7-2.9c0.7-0.3,1.4-0.5,2-0.7c0.1,0,1.4-0.3,1.8-0.3
	C15.3,10.8,15.2,9.6,15,8.3z"/>
<polygon fill="#AAAAAA" points="15,5.1 20.6,9.9 15,14.6 "/>
</svg>
