<?xml version="1.0" encoding="utf-8"?>
<!-- Generator: Adobe Illustrator 18.1.1, SVG Export Plug-In . SVG Version: 6.00 Build 0)  -->
<svg version="1.1" id="Слой_1" xmlns="http://www.w3.org/2000/svg" xmlns:xlink="http://www.w3.org/1999/xlink" x="0px" y="0px"
	 viewBox="0 0 24 24" enable-background="new 0 0 24 24" xml:space="preserve">
<g>
	<g>
		<g>
			<g>
				<path fill="#AAAAAA" d="M17.5,7.5C16,6.5,14,6,11.9,6s-4,0.6-5.5,1.5C4.8,8.7,4,10,4,11.6s0.8,2.9,2.5,4c0,0.1,0.2,0.1,0.3,0.2
					l-0.6,2c-0.1,0.4,0.4,0.8,0.8,0.6l2.5-1.5c0.8,0.2,1.7,0.3,2.6,0.3c2.1,0,4-0.6,5.6-1.5c1.6-1.1,2.4-2.5,2.4-4S19,8.7,17.5,7.5z
					 M11.9,15.7c-3.6,0-6.5-1.8-6.5-4s2.9-4.1,6.5-4.1s6.5,1.8,6.5,4S15.5,15.7,11.9,15.7z"/>
			</g>
		</g>
	</g>
</g>
<path fill="#AAAAAA" d="M14.5,11.2h-5C9.2,11.2,9,11,9,10.7v0c0-0.3,0.2-0.5,0.5-0.5h5c0.3,0,0.5,0.2,0.5,0.5v0
	C15,11,14.8,11.2,14.5,11.2z"/>
<path fill="#AAAAAA" d="M12.5,13.2h-3C9.2,13.2,9,13,9,12.7v0c0-0.3,0.2-0.5,0.5-0.5h3c0.3,0,0.5,0.2,0.5,0.5v0
	C13,13,12.8,13.2,12.5,13.2z"/>
</svg>
