<?xml version="1.0" encoding="utf-8"?>
<!-- Generator: Adobe Illustrator 18.1.1, SVG Export Plug-In . SVG Version: 6.00 Build 0)  -->
<svg version="1.1" onscroll="аыавп" xmlns="http://www.w3.org/2000/svg" xmlns:xlink="http://www.w3.org/1999/xlink" x="0px"
	 y="0px" viewBox="0 0 20 20" enable-background="new 0 0 20 20" xml:space="preserve">
<g id="bg">
</g>
<g id="design">
	<g>
		<g>
			<path fill="none" stroke="#FFFFFF" stroke-linecap="round" stroke-linejoin="round" stroke-miterlimit="10" d="M7.5,13.5
				c0.1-0.1,0.6-1.4-1.2-3.9c0,0,0,0,0,0c-0.6-0.8-1-1.8-1-2.9C5.3,4.1,7.4,2,10,2c2.6,0,4.7,2.1,4.7,4.7c0,1-0.3,2-1,2.9
				c-1.8,2.5-1.3,3.8-1.2,3.9"/>
			<path fill="none" stroke="#FFFFFF" stroke-linecap="round" stroke-linejoin="round" stroke-miterlimit="10" d="M7.3,6.4
				c0.3-1,1.1-1.9,2.1-2.2"/>
			
				<rect x="7" y="13.5" fill="none" stroke="#FFFFFF" stroke-linecap="round" stroke-linejoin="round" stroke-miterlimit="10" width="5.9" height="2"/>
			<polyline fill="none" stroke="#FFFFFF" stroke-linecap="round" stroke-linejoin="round" stroke-miterlimit="10" points="
				11.7,16.2 11.7,17.3 10,18 8.3,17.3 8.3,16.2 			"/>
		</g>
	</g>
</g>
</svg>
